{
    "AWSTemplateFormatVersion": "2010-09-09",
    "Resources": {
      "aws2020ec2cft": {
        "Type": "AWS::EC2::Instance",
        "Properties": {
          "InstanceType": "t3.micro",
          "SubnetId" : "subnet-06ddc244610f280d2",
          "SecurityGroupIds" : ["sg-0bf0a0ea56ed1fff3"],
          "ImageId" : "ami-0742b4e673072066f",
          "KeyName" : "janevieve_pem"
          

        }
      }
    }
  }

  

 